Nitrate Concentration Multiplier, environment\soil\nitrate\concentration\multiplier, 0.5, 2.4
Nitrate Concentration Multiplier, environment\soil\organic\carbonContent\multiplier, 0.5, 2.4
Phosphorus Concentration Multiplier, environment\soil\phosphorus\concentration\multiplier, 7.5, 45
Root Cortical Aerenchyma, simulationControls\aerenchyma\remobilizeP, false, true
Root Cortical Aerenchyma, simulationControls\aerenchyma\reduceRespiration, false, true
Root Cortical Aerenchyma, simulationControls\aerenchyma\includePhotosynthesisEffects, false, true
Root Cortical Aerenchyma, rootTypeParameters\maize-aerenchyma\shoot\aerenchymaPhotosynthesisMitigation\multiplier, 0, 1
Root Cortical Aerenchyma, rootTypeParameters\maize-aerenchyma\hypocotyl\aerenchymaFormation\multiplier, 0, 1
Root Cortical Aerenchyma, rootTypeParameters\maize-aerenchyma\hypocotyl\reductionInRespirationDueToAerenchyma\multiplier, 0, 1
Root Cortical Aerenchyma, rootTypeParameters\maize-aerenchyma\primaryRoot\aerenchymaFormation\multiplier, 0, 1
Root Cortical Aerenchyma, rootTypeParameters\maize-aerenchyma\primaryRoot\reductionInRespirationDueToAerenchyma\multiplier, 0, 1
Root Cortical Aerenchyma, rootTypeParameters\maize-aerenchyma\braceroots\aerenchymaFormation\multiplier, 0, 1
Root Cortical Aerenchyma, rootTypeParameters\maize-aerenchyma\braceroots\reductionInRespirationDueToAerenchyma\multiplier, 0, 1
Root Cortical Aerenchyma, rootTypeParameters\maize-aerenchyma\braceroots2\aerenchymaFormation\multiplier, 0, 1
Root Cortical Aerenchyma, rootTypeParameters\maize-aerenchyma\braceroots2\reductionInRespirationDueToAerenchyma\multiplier, 0, 1
Root Cortical Aerenchyma, rootTypeParameters\maize-aerenchyma\seminal\aerenchymaFormation\multiplier, 0, 1
Root Cortical Aerenchyma, rootTypeParameters\maize-aerenchyma\seminal\reductionInRespirationDueToAerenchyma\multiplier, 0, 1
Root Cortical Aerenchyma, rootTypeParameters\maize-aerenchyma\nodalroots\aerenchymaFormation\multiplier, 0, 1
Root Cortical Aerenchyma, rootTypeParameters\maize-aerenchyma\nodalroots\reductionInRespirationDueToAerenchyma\multiplier, 0, 1
Root Cortical Aerenchyma, rootTypeParameters\maize-aerenchyma\nodalroots2\aerenchymaFormation\multiplier, 0, 1
Root Cortical Aerenchyma, rootTypeParameters\maize-aerenchyma\nodalroots2\reductionInRespirationDueToAerenchyma\multiplier, 0, 1
Root Cortical Aerenchyma, rootTypeParameters\maize-aerenchyma\nodalroots3\aerenchymaFormation\multiplier, 0, 1
Root Cortical Aerenchyma, rootTypeParameters\maize-aerenchyma\nodalroots3\reductionInRespirationDueToAerenchyma\multiplier, 0, 1
Root Cortical Aerenchyma, rootTypeParameters\maize-aerenchyma\nodalroots4\aerenchymaFormation\multiplier, 0, 1
Root Cortical Aerenchyma, rootTypeParameters\maize-aerenchyma\nodalroots4\reductionInRespirationDueToAerenchyma\multiplier, 0, 1
Root Cortical Aerenchyma, rootTypeParameters\maize-aerenchyma\lateralOfCrownRoots\aerenchymaFormation\multiplier, 0, 1
Root Cortical Aerenchyma, rootTypeParameters\maize-aerenchyma\lateralOfCrownRoots\reductionInRespirationDueToAerenchyma\multiplier, 0, 1
Root Cortical Aerenchyma, rootTypeParameters\maize-aerenchyma\lateral\aerenchymaFormation\multiplier, 0, 1
Root Cortical Aerenchyma, rootTypeParameters\maize-aerenchyma\lateral\reductionInRespirationDueToAerenchyma\multiplier, 0, 1
Root Cortical Aerenchyma, rootTypeParameters\maize-aerenchyma\fineLateral\aerenchymaFormation\multiplier, 0, 1
Root Cortical Aerenchyma, rootTypeParameters\maize-aerenchyma\fineLateral\reductionInRespirationDueToAerenchyma\multiplier, 0, 1
Root Cortical Aerenchyma, rootTypeParameters\maize-aerenchyma\fineLateral2\aerenchymaFormation\multiplier, 0, 1
Root Cortical Aerenchyma, rootTypeParameters\maize-aerenchyma\fineLateral2\reductionInRespirationDueToAerenchyma\multiplier, 0, 1
Lateral Root Branching Density, rootTypeParameters\maize-aerenchyma\primaryRoot\branchList\lateral\branchingFrequency, minimum;0.5+maximum;0.9, minimum;0.25+maximum;0.45, minimum;0.05+maximum;0.09
Lateral Root Branching Density, rootTypeParameters\maize-aerenchyma\braceroots\branchList\lateralOfCrownRoots\branchingFrequency, minimum;0.2+maximum;0.6, minimum;0.1+maximum;0.3, minimum;0.02+maximum;0.06
Lateral Root Branching Density, rootTypeParameters\maize-aerenchyma\nodalroots\branchList\lateral\branchingFrequency, minimum;0.2+maximum;0.6, minimum;0.1+maximum;0.3, minimum;0.02+maximum;0.06
Lateral Root Branching Density, rootTypeParameters\maize-aerenchyma\nodalroots2\branchList\lateral\branchingFrequency, minimum;0.2+maximum;0.6, minimum;0.1+maximum;0.3, minimum;0.02+maximum;0.06
Lateral Root Branching Density, rootTypeParameters\maize-aerenchyma\nodalroots3\branchList\lateral\branchingFrequency, minimum;0.2+maximum;0.6, minimum;0.1+maximum;0.3, minimum;0.02+maximum;0.06
Lateral Root Branching Density, rootTypeParameters\maize-aerenchyma\nodalroots4\branchList\lateral\branchingFrequency, minimum;0.2+maximum;0.6, minimum;0.1+maximum;0.3, minimum;0.02+maximum;0.06
Lateral Root Branching Density, rootTypeParameters\maize-aerenchyma\braceroots2\branchList\lateralOfCrownRoots\branchingFrequency, minimum;0.2+maximum;0.8, minimum;0.1+maximum;0.4, minimum;0.02+maximum;0.08
Lateral Root Branching Density, rootTypeParameters\maize-aerenchyma\seminal\branchList\lateral\branchingFrequency, minimum;0.1+maximum;0.5, minimum;0.05+maximum;0.25, minimum;0.01+maximum;0.05
Lateral Root Branching Density, rootTypeParameters\maize-aerenchyma\lateralOfCrownRoots\branchList\lateral\branchingFrequency, minimum;0.5+maximum;0.7, minimum;0.25+maximum;0.35, minimum;0.05+maximum;0.07
Lateral Root Branching Density, rootTypeParameters\maize-aerenchyma\lateral\branchList\fineLateral\branchingFrequency, minimum;0.3+maximum;0.7, minimum;0.15+maximum;0.35, minimum;0.03+maximum;0.07
Lateral Root Branching Density, rootTypeParameters\maize-aerenchyma\fineLateral\branchList\fineLateral2\branchingFrequency, minimum;0.8+maximum;1.2, minimum;0.4+maximum;0.6, minimum;0.2+maximum;0.3
Nodal Root Number, rootTypeParameters\maize-aerenchyma\hypocotyl\branchList\nodalroots\numberOfBranches/whorl, 1, 2, 3, 6
Nodal Root Number, rootTypeParameters\maize-aerenchyma\hypocotyl\branchList\nodalroots\maxNumberOfBranches, 1, 2, 3, 6
Nodal Root Number, rootTypeParameters\maize-aerenchyma\hypocotyl\branchList\nodalroots2\numberOfBranches/whorl, 1, 2, 4, 8
Nodal Root Number, rootTypeParameters\maize-aerenchyma\hypocotyl\branchList\nodalroots2\maxNumberOfBranches, 1, 2, 4, 8
Nodal Root Number, rootTypeParameters\maize-aerenchyma\hypocotyl\branchList\nodalroots3\numberOfBranches/whorl, 1, 3, 5, 10
Nodal Root Number, rootTypeParameters\maize-aerenchyma\hypocotyl\branchList\nodalroots3\maxNumberOfBranches, 1, 3, 5, 10
Nodal Root Number, rootTypeParameters\maize-aerenchyma\hypocotyl\branchList\nodalroots4\numberOfBranches/whorl, 1, 4, 6, 12
Nodal Root Number, rootTypeParameters\maize-aerenchyma\hypocotyl\branchList\nodalroots4\maxNumberOfBranches, 1, 4, 6, 12
Nodal Root Number, rootTypeParameters\maize-aerenchyma\hypocotyl\branchList\braceroots\numberOfBranches/whorl, 2, 6, 14, 14
Nodal Root Number, rootTypeParameters\maize-aerenchyma\hypocotyl\branchList\braceroots\maxNumberOfBranches, 2, 6, 14, 14
Nodal Root Number, rootTypeParameters\maize-aerenchyma\hypocotyl\branchList\braceroots2\numberOfBranches/whorl, 2, 6, 20, 20
Nodal Root Number, rootTypeParameters\maize-aerenchyma\hypocotyl\branchList\braceroots2\maxNumberOfBranches, 2, 6, 20, 20
Nodal Root Angle, rootTypeParameters\maize-aerenchyma\nodalroots\branchingAngle, 180, 160, 130
Nodal Root Angle, rootTypeParameters\maize-aerenchyma\nodalroots2\branchingAngle, 170, 150, 120
Nodal Root Angle, rootTypeParameters\maize-aerenchyma\nodalroots3\branchingAngle, 160, 140, 110
Nodal Root Angle, rootTypeParameters\maize-aerenchyma\nodalroots4\branchingAngle, 150, 130, 100
Nodal Root Angle, rootTypeParameters\maize-aerenchyma\braceroots\branchingAngle, 160, 140, 110
Nodal Root Angle, rootTypeParameters\maize-aerenchyma\braceroots2\branchingAngle, 150, 130, 100
